\BOOKMARK [2][]{Outline0.1}{Bayesian thinking}{}% 1
\BOOKMARK [2][]{Outline0.2}{Bayesian concepts}{}% 2
\BOOKMARK [2][]{Outline0.3}{Bayesian inference}{}% 3
\BOOKMARK [2][]{Outline0.4}{Bayesian computation}{}% 4
\BOOKMARK [2][]{Outline0.5}{Approximate Bayesian Computation}{}% 5
