\relax 
\providecommand\hyper@newdestlabel[2]{}
\@writefile{toc}{\beamer@sectionintoc {5}{convnets}{61}{0}{5}}
\@writefile{nav}{\headcommand {\beamer@sectionpages {45}{60}}}
\@writefile{nav}{\headcommand {\beamer@subsectionpages {45}{60}}}
\@writefile{nav}{\headcommand {\sectionentry {5}{convnets}{61}{convnets}{0}}}
\@writefile{nav}{\headcommand {\slideentry {5}{0}{1}{61/61}{}{0}}}
\@writefile{nav}{\headcommand {\beamer@framepages {61}{61}}}
\@writefile{nav}{\headcommand {\slideentry {5}{0}{2}{62/62}{}{0}}}
\@writefile{nav}{\headcommand {\beamer@framepages {62}{62}}}
\@writefile{nav}{\headcommand {\slideentry {5}{0}{3}{63/63}{}{0}}}
\@writefile{nav}{\headcommand {\beamer@framepages {63}{63}}}
\@writefile{nav}{\headcommand {\slideentry {5}{0}{4}{64/64}{}{0}}}
\@writefile{nav}{\headcommand {\beamer@framepages {64}{64}}}
\@writefile{nav}{\headcommand {\slideentry {5}{0}{5}{65/65}{}{0}}}
\@writefile{nav}{\headcommand {\beamer@framepages {65}{65}}}
\@writefile{nav}{\headcommand {\slideentry {5}{0}{6}{66/66}{}{0}}}
\@writefile{nav}{\headcommand {\beamer@framepages {66}{66}}}
\@writefile{nav}{\headcommand {\slideentry {5}{0}{7}{67/67}{}{0}}}
\@writefile{nav}{\headcommand {\beamer@framepages {67}{67}}}
\@writefile{nav}{\headcommand {\slideentry {5}{0}{8}{68/68}{}{0}}}
\@writefile{nav}{\headcommand {\beamer@framepages {68}{68}}}
\@writefile{nav}{\headcommand {\slideentry {5}{0}{9}{69/69}{}{0}}}
\@writefile{nav}{\headcommand {\beamer@framepages {69}{69}}}
\@writefile{nav}{\headcommand {\slideentry {5}{0}{10}{70/70}{}{0}}}
\@writefile{nav}{\headcommand {\beamer@framepages {70}{70}}}
\@writefile{nav}{\headcommand {\slideentry {5}{0}{11}{71/71}{}{0}}}
\@writefile{nav}{\headcommand {\beamer@framepages {71}{71}}}
\@writefile{nav}{\headcommand {\slideentry {5}{0}{12}{72/72}{}{0}}}
\@writefile{nav}{\headcommand {\beamer@framepages {72}{72}}}
\@writefile{nav}{\headcommand {\slideentry {5}{0}{13}{73/73}{}{0}}}
\@writefile{nav}{\headcommand {\beamer@framepages {73}{73}}}
\@writefile{nav}{\headcommand {\slideentry {5}{0}{14}{74/74}{}{0}}}
\@writefile{nav}{\headcommand {\beamer@framepages {74}{74}}}
\@setckpt{cnn}{
\setcounter{page}{75}
\setcounter{equation}{0}
\setcounter{enumi}{3}
\setcounter{enumii}{0}
\setcounter{enumiii}{0}
\setcounter{enumiv}{0}
\setcounter{footnote}{0}
\setcounter{mpfootnote}{0}
\setcounter{beamerpauses}{1}
\setcounter{bookmark@seq@number}{5}
\setcounter{lecture}{0}
\setcounter{part}{0}
\setcounter{section}{5}
\setcounter{subsection}{0}
\setcounter{subsubsection}{0}
\setcounter{subsectionslide}{14}
\setcounter{framenumber}{67}
\setcounter{figure}{3}
\setcounter{table}{0}
\setcounter{parentequation}{0}
\setcounter{theorem}{0}
\setcounter{caption@flags}{0}
\setcounter{continuedfloat}{0}
\setcounter{subfigure}{0}
\setcounter{subtable}{0}
\setcounter{section@level}{0}
}
