\relax 
\providecommand\hyper@newdestlabel[2]{}
\@writefile{toc}{\beamer@sectionintoc {7}{Practical}{98}{0}{7}}
\@writefile{nav}{\headcommand {\beamer@sectionpages {75}{97}}}
\@writefile{nav}{\headcommand {\beamer@subsectionpages {75}{97}}}
\@writefile{nav}{\headcommand {\sectionentry {7}{Practical}{98}{Practical}{0}}}
\@writefile{nav}{\headcommand {\slideentry {7}{0}{1}{98/98}{}{0}}}
\@writefile{nav}{\headcommand {\beamer@framepages {98}{98}}}
\@writefile{nav}{\headcommand {\slideentry {7}{0}{2}{99/99}{}{0}}}
\@writefile{nav}{\headcommand {\beamer@framepages {99}{99}}}
\@writefile{nav}{\headcommand {\slideentry {7}{0}{3}{100/100}{}{0}}}
\@writefile{nav}{\headcommand {\beamer@framepages {100}{100}}}
\@writefile{nav}{\headcommand {\slideentry {7}{0}{4}{101/101}{}{0}}}
\@writefile{nav}{\headcommand {\beamer@framepages {101}{101}}}
\@writefile{nav}{\headcommand {\slideentry {7}{0}{5}{102/102}{}{0}}}
\@writefile{nav}{\headcommand {\beamer@framepages {102}{102}}}
\@writefile{nav}{\headcommand {\slideentry {7}{0}{6}{103/103}{}{0}}}
\@writefile{nav}{\headcommand {\beamer@framepages {103}{103}}}
\@setckpt{practical}{
\setcounter{page}{104}
\setcounter{equation}{0}
\setcounter{enumi}{5}
\setcounter{enumii}{0}
\setcounter{enumiii}{0}
\setcounter{enumiv}{0}
\setcounter{footnote}{0}
\setcounter{mpfootnote}{0}
\setcounter{beamerpauses}{1}
\setcounter{bookmark@seq@number}{7}
\setcounter{lecture}{0}
\setcounter{part}{0}
\setcounter{section}{7}
\setcounter{subsection}{0}
\setcounter{subsubsection}{0}
\setcounter{subsectionslide}{6}
\setcounter{framenumber}{92}
\setcounter{figure}{3}
\setcounter{table}{0}
\setcounter{parentequation}{0}
\setcounter{theorem}{0}
\setcounter{caption@flags}{0}
\setcounter{continuedfloat}{0}
\setcounter{subfigure}{0}
\setcounter{subtable}{0}
\setcounter{section@level}{0}
}
